<?xml version="1.0" encoding="utf-8"?>
<!-- Generator: Adobe Illustrator 16.0.0, SVG Export Plug-In . SVG Version: 6.00 Build 0)  -->
<!DOCTYPE svg PUBLIC "-//W3C//DTD SVG 1.1//EN" "http://www.w3.org/Graphics/SVG/1.1/DTD/svg11.dtd">
<svg version="1.1" id="Layer_1" xmlns="http://www.w3.org/2000/svg" xmlns:xlink="http://www.w3.org/1999/xlink" x="0px" y="0px"
	 width="85.209px" height="35px" viewBox="0 0 85.209 35" enable-background="new 0 0 85.209 35" xml:space="preserve">
<g>
	<path fill="#FFFFFF" d="M4.803,15.275V12.03h3.044v7.207c0,1.837-0.274,3.244-0.828,4.232c-0.554,0.983-1.362,1.473-2.416,1.473
		c-1.053,0-1.858-0.489-2.412-1.473c-0.556-0.988-0.832-2.404-0.832-4.232V7.424c0-1.835,0.278-3.251,0.832-4.234
		c0.554-0.983,1.356-1.478,2.412-1.478c1.054,0,1.858,0.495,2.416,1.478c0.554,0.988,0.828,2.398,0.828,4.234v2.205H5.789V7.198
		c0-1.496-0.374-2.241-1.127-2.241c-0.752,0-1.129,0.742-1.129,2.241v12.261c0,1.476,0.376,2.214,1.129,2.214
		c0.753,0,1.127-0.738,1.127-2.214v-4.184H4.803z"/>
	<path fill="#FFFFFF" d="M16.019,24.689h-2.22c-0.131-0.651-0.194-1.578-0.194-2.791v-3.571c0-1.04-0.115-1.779-0.338-2.224
		c-0.225-0.442-0.587-0.669-1.09-0.669h-0.747v9.253H9.253V1.968h3.283c1.121,0,1.936,0.428,2.451,1.284
		c0.514,0.856,0.771,2.168,0.771,3.943v1.781c0,2.315-0.474,3.84-1.422,4.578v0.064c0.964,0.673,1.446,2.275,1.446,4.807v3.504
		C15.783,23.165,15.861,24.083,16.019,24.689z M12.475,5.218h-1.046v6.978h0.849c0.438,0,0.761-0.189,0.978-0.555
		c0.222-0.372,0.328-0.981,0.328-1.851V7.548C13.583,5.996,13.212,5.218,12.475,5.218z"/>
	<path fill="#FFFFFF" d="M17.027,19.237V7.424c0-1.816,0.285-3.223,0.85-4.224c0.569-0.993,1.385-1.488,2.452-1.488
		c1.07,0,1.889,0.495,2.451,1.488c0.57,0.998,0.851,2.4,0.851,4.224v11.813c0,1.815-0.281,3.224-0.851,4.225
		c-0.562,0.991-1.381,1.484-2.451,1.484c-1.067,0-1.882-0.493-2.452-1.486C17.308,22.461,17.027,21.053,17.027,19.237z M19.2,7.198
		v12.261c0,1.497,0.377,2.243,1.128,2.243c0.752,0,1.128-0.746,1.128-2.243V7.198c0-1.496-0.374-2.241-1.128-2.241
		C19.578,4.957,19.2,5.699,19.2,7.198z"/>
	<path fill="#FFFFFF" d="M24.939,1.974h2.173v17.521c0,1.473,0.376,2.207,1.128,2.207c0.75,0,1.127-0.734,1.127-2.207V1.974h2.056
		v17.3c0,1.84-0.276,3.247-0.83,4.234c-0.556,0.98-1.361,1.474-2.418,1.474c-1.054,0-1.858-0.493-2.41-1.474
		c-0.556-0.987-0.831-2.399-0.831-4.234v-17.3H24.939z"/>
	<path fill="#FFFFFF" d="M37.556,24.689l-2.67-16.454h-0.042v16.454H32.89V1.974h2.73l2.197,13.592h0.038V1.974h1.94v22.716H37.556z
		"/>
	<path fill="#FFFFFF" d="M41.353,24.689V1.974h3.442c2.163,0,3.245,1.869,3.245,5.614v11.488c0,3.746-1.082,5.614-3.245,5.614
		H41.353z M44.756,5.218h-1.228v16.224h1.228c0.743,0,1.109-0.733,1.109-2.204V7.424C45.865,5.949,45.499,5.218,44.756,5.218z"/>
	<path fill="#FFFFFF" d="M55.042,24.689l-0.77-12.104h-0.041L53.46,24.689h-2.983L48.925,1.974h2.122l1.147,17.911h0.038
		l1.028-17.911h2.098l1.07,18.042h0.041l1.104-18.042h1.897l-1.548,22.716H55.042z"/>
	<path fill="#FFFFFF" d="M60.462,1.974h2.174v17.521c0,1.473,0.374,2.207,1.128,2.207c0.751,0,1.119-0.734,1.119-2.207V1.974h2.067
		v17.3c0,1.84-0.287,3.247-0.829,4.234c-0.559,0.98-1.363,1.474-2.417,1.474c-1.053,0-1.854-0.493-2.416-1.474
		c-0.557-0.987-0.833-2.399-0.833-4.234v-17.3H60.462z"/>
	<path fill="#FFFFFF" d="M75.199,24.689h-2.216c-0.131-0.651-0.198-1.578-0.198-2.791v-3.571c0-1.04-0.11-1.779-0.335-2.224
		c-0.227-0.442-0.586-0.669-1.092-0.669h-0.75v9.253h-2.18V1.968h3.285c1.117,0,1.938,0.428,2.458,1.284
		c0.517,0.856,0.767,2.168,0.767,3.943v1.781c0,2.315-0.479,3.84-1.426,4.578v0.064c0.968,0.673,1.447,2.275,1.447,4.807v3.504
		C74.96,23.165,75.039,24.083,75.199,24.689z M71.661,5.218h-1.047v6.978h0.851c0.43,0,0.759-0.189,0.969-0.555
		c0.226-0.372,0.335-0.981,0.335-1.851V7.548C72.769,5.996,72.396,5.218,71.661,5.218z"/>
	<path fill="#FFFFFF" d="M81.351,24.689l-2.117-9.053l-0.672,2.076v6.977h-2.173V1.974h2.173v9.833h0.043l2.812-9.833h2.173
		l-3.028,10.124l3.028,12.594h-2.238V24.689z"/>
</g>
<g>
	<path fill="#FFFFFF" d="M22.914,30.433c0-0.431,0.106-0.766,0.329-0.999c0.22-0.232,0.54-0.351,0.971-0.351
		c0.426,0,0.747,0.118,0.968,0.351c0.222,0.233,0.328,0.568,0.328,0.999v0.17h-0.829v-0.225c0-0.359-0.146-0.527-0.442-0.527
		c-0.296,0-0.441,0.171-0.441,0.527c0,0.2,0.054,0.381,0.163,0.549c0.108,0.17,0.306,0.372,0.591,0.611
		c0.363,0.306,0.618,0.586,0.758,0.839c0.142,0.247,0.214,0.524,0.214,0.837c0,0.43-0.11,0.763-0.333,1.001
		c-0.225,0.222-0.554,0.34-0.979,0.34c-0.429,0-0.754-0.11-0.982-0.34c-0.227-0.238-0.336-0.563-0.336-0.994v-0.325h0.833v0.379
		c0,0.343,0.15,0.517,0.455,0.517c0.306,0,0.456-0.174,0.456-0.517c0-0.206-0.052-0.379-0.163-0.555
		c-0.11-0.171-0.306-0.376-0.591-0.608c-0.363-0.311-0.613-0.587-0.758-0.831C22.983,31.023,22.914,30.746,22.914,30.433z"/>
	<path fill="#FFFFFF" d="M28.5,29.913v-0.764h2.728v0.764h-0.921v4.591h-0.883v-4.591H28.5z"/>
	<path fill="#FFFFFF" d="M34.301,29.149h0.881v4.127c0,0.348,0.148,0.521,0.457,0.521c0.305,0,0.457-0.174,0.457-0.521v-4.127h0.832
		v4.078c0,0.431-0.113,0.766-0.335,1.002c-0.225,0.227-0.552,0.341-0.983,0.341c-0.427,0-0.75-0.111-0.979-0.341
		c-0.224-0.236-0.334-0.571-0.334-1.002v-4.078H34.301z"/>
	<path fill="#FFFFFF" d="M40.262,34.504v-5.354h1.397c0.876,0,1.318,0.438,1.318,1.322v2.706c0,0.889-0.442,1.326-1.318,1.326
		H40.262z M41.641,29.913h-0.496v3.824h0.496c0.299,0,0.449-0.173,0.449-0.517v-2.788C42.09,30.082,41.939,29.913,41.641,29.913z"/>
	<path fill="#FFFFFF" d="M46.263,34.504v-5.354h0.886v5.354H46.263z"/>
	<path fill="#FFFFFF" d="M50.444,33.221v-2.788c0-0.425,0.113-0.759,0.343-0.989c0.231-0.233,0.559-0.353,0.993-0.353
		s0.769,0.119,0.997,0.353c0.229,0.23,0.342,0.564,0.342,0.989v2.788c0,0.423-0.112,0.756-0.342,0.99
		c-0.229,0.236-0.563,0.352-0.997,0.352s-0.762-0.11-0.993-0.352C50.557,33.977,50.444,33.644,50.444,33.221z M51.327,30.384v2.893
		c0,0.352,0.154,0.521,0.453,0.521c0.309,0,0.46-0.174,0.46-0.521v-2.893c0-0.362-0.151-0.529-0.46-0.529
		C51.481,29.851,51.327,30.021,51.327,30.384z"/>
	<path fill="#FFFFFF" d="M56.306,30.433c0-0.431,0.109-0.766,0.328-0.999c0.225-0.232,0.543-0.351,0.972-0.351
		c0.431,0,0.748,0.118,0.965,0.351c0.222,0.233,0.333,0.568,0.333,0.999v0.17h-0.834v-0.225c0-0.359-0.154-0.527-0.438-0.527
		c-0.299,0-0.446,0.171-0.446,0.527c0,0.2,0.051,0.381,0.167,0.549c0.104,0.17,0.31,0.372,0.585,0.611
		c0.37,0.306,0.62,0.586,0.765,0.839c0.139,0.247,0.211,0.524,0.211,0.837c0,0.43-0.106,0.763-0.341,1.001
		c-0.228,0.222-0.545,0.34-0.967,0.34c-0.432,0-0.768-0.11-0.988-0.34c-0.223-0.238-0.336-0.571-0.336-1.001v-0.326h0.835v0.378
		c0,0.344,0.151,0.519,0.458,0.519s0.462-0.175,0.462-0.519c0-0.204-0.062-0.378-0.168-0.551c-0.113-0.171-0.302-0.376-0.591-0.61
		c-0.36-0.309-0.613-0.588-0.76-0.83C56.376,31.023,56.306,30.746,56.306,30.433z"/>
</g>
<g>
	<rect fill="#FFFFFF" width="85.209" height="0.944"/>
</g>
<g>
	<rect y="25.921" fill="#FFFFFF" width="85.209" height="0.944"/>
</g>
</svg>
