{
  "prepare_queue": {
    "installed": [],
    "uninstalled": []
  },
  "config_munge": {
    "files": {}
  },
  "installed_plugins": {
    "com.hutchind.cordova.plugins.streamingmedia": {
      "PACKAGE_NAME": "com.Groundwurk.www"
    },
    "cordova-plugin-device": {
      "PACKAGE_NAME": "com.Groundwurk.www"
    },
    "cordova-plugin-inappbrowser": {
      "PACKAGE_NAME": "com.Groundwurk.www"
    },
    "cordova-plugin-screen-orientation": {
      "PACKAGE_NAME": "com.Groundwurk.www"
    },
    "cordova-plugin-splashscreen": {
      "PACKAGE_NAME": "com.Groundwurk.www"
    },
    "cordova-plugin-whitelist": {
      "PACKAGE_NAME": "com.Groundwurk.www"
    },
    "cordova-sqlite-storage": {
      "PACKAGE_NAME": "com.Groundwurk.www"
    },
    "es6-promise-plugin": {
      "PACKAGE_NAME": "com.Groundwurk.www"
    }
  },
  "dependent_plugins": {}
}