<?xml version="1.0" encoding="utf-8"?>
<!-- Generator: Adobe Illustrator 16.0.0, SVG Export Plug-In . SVG Version: 6.00 Build 0)  -->
<!DOCTYPE svg PUBLIC "-//W3C//DTD SVG 1.1//EN" "http://www.w3.org/Graphics/SVG/1.1/DTD/svg11.dtd">
<svg version="1.1" id="Layer_1" xmlns="http://www.w3.org/2000/svg" xmlns:xlink="http://www.w3.org/1999/xlink" x="0px" y="0px"
	 width="119.667px" height="51px" viewBox="0 0 119.667 51" enable-background="new 0 0 119.667 51" xml:space="preserve">
<g>
	<path fill="#FFFFFF" d="M6.724,22.675v-4.558H11v10.125c0,2.58-0.385,4.558-1.163,5.945c-0.778,1.383-1.914,2.069-3.395,2.069
		c-1.479,0-2.61-0.687-3.389-2.069c-0.781-1.388-1.168-3.377-1.168-5.945V11.646c0-2.579,0.391-4.568,1.168-5.949
		c0.779-1.381,1.905-2.076,3.389-2.076c1.481,0,2.611,0.695,3.395,2.076C10.615,7.085,11,9.067,11,11.646v3.098H8.108v-3.416
		c0-2.102-0.524-3.148-1.583-3.148c-1.057,0-1.585,1.042-1.585,3.148v17.227c0,2.073,0.528,3.109,1.585,3.109
		c1.059,0,1.583-1.036,1.583-3.109v-5.879H6.724z"/>
	<path fill="#FFFFFF" d="M22.481,35.902h-3.119c-0.185-0.915-0.273-2.217-0.273-3.921v-5.018c0-1.461-0.162-2.499-0.475-3.125
		c-0.316-0.621-0.826-0.939-1.532-0.939h-1.05v13h-3.056V3.98h4.612c1.575,0,2.72,0.601,3.444,1.805
		c0.722,1.203,1.084,3.046,1.084,5.54v2.502c0,3.253-0.666,5.396-1.999,6.432v0.09c1.355,0.946,2.032,3.197,2.032,6.753v4.923
		C22.15,33.761,22.26,35.051,22.481,35.902z M17.502,8.545h-1.47v9.804h1.192c0.615,0,1.069-0.265,1.374-0.779
		c0.312-0.522,0.46-1.379,0.46-2.601V11.82C19.058,9.639,18.538,8.545,17.502,8.545z"/>
	<path fill="#FFFFFF" d="M23.897,28.243V11.646c0-2.551,0.4-4.528,1.193-5.935c0.8-1.395,1.946-2.09,3.445-2.09
		c1.503,0,2.653,0.695,3.443,2.09c0.801,1.402,1.196,3.373,1.196,5.935v16.597c0,2.55-0.395,4.529-1.196,5.936
		c-0.79,1.393-1.94,2.085-3.443,2.085c-1.499,0-2.645-0.692-3.445-2.088C24.292,32.772,23.897,30.793,23.897,28.243z M26.951,11.328
		v17.227c0,2.103,0.531,3.151,1.585,3.151c1.057,0,1.585-1.049,1.585-3.151V11.328c0-2.102-0.525-3.148-1.585-3.148
		C27.481,8.179,26.951,9.222,26.951,11.328z"/>
	<path fill="#FFFFFF" d="M35.014,3.988h3.053v24.617c0,2.069,0.529,3.102,1.586,3.102c1.054,0,1.584-1.032,1.584-3.102V3.988h2.888
		v24.306c0,2.585-0.387,4.562-1.166,5.949c-0.781,1.377-1.912,2.07-3.397,2.07c-1.481,0-2.61-0.693-3.386-2.07
		c-0.781-1.388-1.167-3.371-1.167-5.949V3.988H35.014z"/>
	<path fill="#FFFFFF" d="M52.741,35.902l-3.753-23.117H48.93v23.117h-2.745V3.988h3.836l3.086,19.097h0.054V3.988h2.726v31.915
		H52.741z"/>
	<path fill="#FFFFFF" d="M58.075,35.902V3.988h4.835c3.039,0,4.559,2.626,4.559,7.887v16.14c0,5.264-1.52,7.888-4.559,7.888H58.075z
		 M62.856,8.545h-1.725V31.34h1.725c1.043,0,1.558-1.031,1.558-3.097V11.646C64.414,9.573,63.899,8.545,62.856,8.545z"/>
	<path fill="#FFFFFF" d="M77.307,35.902l-1.079-17.006h-0.059l-1.085,17.006h-4.191l-2.18-31.915h2.981l1.612,25.165h0.054
		l1.444-25.165h2.947l1.504,25.348h0.057l1.553-25.348h2.666l-2.176,31.915H77.307z"/>
	<path fill="#FFFFFF" d="M84.922,3.988h3.056v24.617c0,2.069,0.524,3.102,1.584,3.102c1.054,0,1.572-1.032,1.572-3.102V3.988h2.904
		v24.306c0,2.585-0.403,4.562-1.164,5.949c-0.786,1.377-1.917,2.07-3.397,2.07c-1.478,0-2.605-0.693-3.394-2.07
		c-0.782-1.388-1.171-3.371-1.171-5.949V3.988H84.922z"/>
	<path fill="#FFFFFF" d="M105.627,35.902h-3.112c-0.185-0.915-0.277-2.217-0.277-3.921v-5.018c0-1.461-0.157-2.499-0.471-3.125
		c-0.319-0.621-0.825-0.939-1.536-0.939h-1.053v13h-3.063V3.98h4.615c1.571,0,2.723,0.601,3.453,1.805
		c0.727,1.203,1.078,3.046,1.078,5.54v2.502c0,3.253-0.674,5.396-2.004,6.432v0.09c1.359,0.946,2.034,3.197,2.034,6.753v4.923
		C105.292,33.761,105.403,35.051,105.627,35.902z M100.657,8.545h-1.472v9.804h1.195c0.604,0,1.066-0.265,1.362-0.779
		c0.316-0.522,0.471-1.379,0.471-2.601V11.82C102.214,9.639,101.689,8.545,100.657,8.545z"/>
	<path fill="#FFFFFF" d="M114.27,35.902l-2.975-12.719l-0.943,2.917v9.802h-3.053V3.988h3.053v13.814h0.062l3.948-13.814h3.053
		l-4.253,14.223l4.253,17.696h-3.145V35.902z"/>
</g>
<g>
	<path fill="#FFFFFF" d="M32.168,43.972c0-0.604,0.149-1.075,0.463-1.403c0.309-0.326,0.759-0.492,1.364-0.492
		c0.598,0,1.049,0.166,1.359,0.492c0.313,0.328,0.46,0.799,0.46,1.403v0.238H34.65v-0.315c0-0.504-0.205-0.74-0.621-0.74
		s-0.62,0.239-0.62,0.74c0,0.281,0.076,0.536,0.229,0.771c0.152,0.238,0.43,0.523,0.831,0.858c0.51,0.431,0.868,0.823,1.065,1.179
		c0.199,0.348,0.3,0.737,0.3,1.176c0,0.604-0.154,1.072-0.467,1.406c-0.316,0.312-0.778,0.478-1.375,0.478
		c-0.602,0-1.059-0.154-1.38-0.478c-0.319-0.334-0.473-0.79-0.473-1.396v-0.456h1.17v0.531c0,0.482,0.211,0.727,0.64,0.727
		c0.43,0,0.64-0.244,0.64-0.727c0-0.289-0.073-0.531-0.229-0.779c-0.154-0.239-0.43-0.528-0.831-0.854
		c-0.511-0.436-0.861-0.824-1.066-1.167C32.266,44.802,32.168,44.412,32.168,43.972z"/>
	<path fill="#FFFFFF" d="M40.017,43.241v-1.072h3.833v1.072h-1.295v6.45h-1.241v-6.45H40.017z"/>
	<path fill="#FFFFFF" d="M48.167,42.169h1.238v5.799c0,0.488,0.209,0.732,0.642,0.732c0.428,0,0.642-0.244,0.642-0.732v-5.799h1.168
		v5.729c0,0.605-0.157,1.075-0.47,1.408c-0.317,0.317-0.777,0.479-1.382,0.479c-0.601,0-1.054-0.156-1.375-0.479
		c-0.315-0.333-0.47-0.803-0.47-1.408v-5.729H48.167z"/>
	<path fill="#FFFFFF" d="M56.541,49.691v-7.522h1.963c1.231,0,1.852,0.616,1.852,1.858v3.802c0,1.248-0.62,1.862-1.852,1.862H56.541
		z M58.479,43.241h-0.697v5.374h0.697c0.42,0,0.631-0.243,0.631-0.727v-3.917C59.11,43.479,58.899,43.241,58.479,43.241z"/>
	<path fill="#FFFFFF" d="M64.973,49.691v-7.522h1.244v7.522H64.973z"/>
	<path fill="#FFFFFF" d="M70.849,47.889v-3.917c0-0.597,0.157-1.066,0.482-1.39c0.323-0.328,0.785-0.495,1.395-0.495
		c0.608,0,1.08,0.167,1.399,0.495c0.322,0.323,0.48,0.793,0.48,1.39v3.917c0,0.595-0.158,1.063-0.48,1.392
		c-0.319,0.332-0.791,0.494-1.399,0.494c-0.609,0-1.071-0.155-1.395-0.494C71.006,48.951,70.849,48.483,70.849,47.889z
		 M72.089,43.903v4.064c0,0.493,0.216,0.732,0.637,0.732c0.434,0,0.646-0.244,0.646-0.732v-4.064c0-0.51-0.213-0.744-0.646-0.744
		C72.305,43.154,72.089,43.394,72.089,43.903z"/>
	<path fill="#FFFFFF" d="M79.082,43.972c0-0.604,0.154-1.075,0.462-1.403c0.316-0.326,0.764-0.492,1.364-0.492
		c0.605,0,1.052,0.166,1.356,0.492c0.312,0.328,0.469,0.799,0.469,1.403v0.238h-1.173v-0.315c0-0.504-0.217-0.74-0.615-0.74
		c-0.42,0-0.626,0.239-0.626,0.74c0,0.281,0.072,0.536,0.234,0.771c0.146,0.238,0.436,0.523,0.821,0.858
		c0.521,0.431,0.871,0.823,1.075,1.179c0.195,0.348,0.297,0.737,0.297,1.176c0,0.604-0.15,1.072-0.479,1.406
		c-0.32,0.312-0.767,0.478-1.36,0.478c-0.605,0-1.078-0.154-1.388-0.478c-0.313-0.334-0.472-0.802-0.472-1.406v-0.458h1.173v0.531
		c0,0.483,0.213,0.729,0.644,0.729s0.648-0.245,0.648-0.729c0-0.287-0.085-0.531-0.236-0.774c-0.158-0.239-0.424-0.528-0.83-0.856
		c-0.506-0.435-0.86-0.827-1.065-1.167C79.182,44.802,79.082,44.412,79.082,43.972z"/>
</g>
<g>
	<rect x="-0.025" y="1.215" fill="#FFFFFF" width="119.716" height="1.327"/>
</g>
<g>
	<rect x="-0.025" y="37.633" fill="#FFFFFF" width="119.716" height="1.327"/>
</g>
</svg>
